[
  {
    "event_title": "Flag Hosting",
    "event_desc": "Flag hosting(Hosting of Liwae Ahmadiyyat)",
    "start_time": "2016-12-26:10:00:00",
    "end_time": "2016-12-26:10:10:00"
  },
  {
    "event_title": "Recitation of the HolyQur'an with Urdu Translation",
    "event_desc": "Recitation of the HolyQur'an with Urdu Translation",
    "start_time": "2016-12-26:10:10:00",
    "end_time": "2016-12-26:10:25:00"
  },
  {
    "event_title": "Poem",
    "event_desc": "Urdu Poem(Nazam)",
    "start_time": "2016-12-26:10:45:00",
    "end_time": "2016-12-26:11:00:00"
  },
  {
    "event_title": "The existence of god",
    "event_desc": "Lecture On:The existence of god(The Concept of Oneness of God in world religions) By:Maulana Zaheer Ahmad Sahib Khadim(Addl.Nazir Dawat llallah South India ,Qadian)",
    "start_time": "2016-12-26:11:00:00",
    "end_time": "2016-12-26:11:30:00"
  },
  {
    "event_title": "The Life of Character of Holy Prophet(saw)",
    "event_desc": "Lecture On:The Life of Character of Holy Prophet(saw)(from the perspective of dispensation of Justice & Equality ) By:Maulana Muhammad Inaam Sahib Ghori(Nazir Aala Sadr Anjuman Ahmadiyya & Ammeer-e-Maqami Qadian)",
    "start_time": "2016-12-26:11:30:00",
    "end_time": "2016-12-26:12:00:00"
  },
  {
    "event_title": "Remark & Introductory Speeches of Guests",
    "event_desc": "Remark & Introductory Speeches of Guests",
    "start_time": "2016-12-26:12:00:00",
    "end_time": "2016-12-26:12:15:00"
  },
  {
    "event_title": "Interval of Zuhr & Asr Prayers",
    "event_desc": "Zuhr and Asr Prayers",
    "start_time": "2016-12-26:12:15:00",
    "end_time": "2016-12-26:1:45:00"
  },
  {
    "event_title": "Second Session: Recitation of the HolyQur'an with Urdu Translation",
    "event_desc": "Recitation of the HolyQur'an with Urdu Translation",
    "start_time": "2016-12-26:2:00:00",
    "end_time": "2016-12-26:2:15:00"
  },
  {
    "event_title": "Poem",
    "event_desc": "Urdu Poem(Nazam)",
    "start_time": "2016-12-26:2:15:00",
    "end_time": "2016-12-26:2:30:00"
  },
  {
    "event_title": "Truthfulness of the Promised Messiah(as)",
    "event_desc": "Lecture On:Truthfulness of the Promised Messiah(as)(In the light of signs of Divine Support) By:Maulana Muzaffar Ahmad Sahib Nasir(Nazir Islah-o-Irshad Markazir,Qadian)",
    "start_time": "2016-12-26:2:30:00",
    "end_time": "2016-12-26:3:00:00"
  },
  {
    "event_title": "The Life of the blessed Companions",
    "event_desc": "Lecture On:The Life of the blessed Companions(Hazrat Abu Hurairah(ra) and Hazart Sheikh Yaqoob Ali Irfani(ra)) By:Maulana Muneer Ahmad Sahib Kadim(Addl:Nazir Islah-o-Irshad South India,Qadian)",
    "start_time": "2016-12-26:3:00:00",
    "end_time": "2016-12-26:3:30:00"
  },
  {
    "event_title": "Significance of the institution of Wasiyyat & its blessings",
    "event_desc": "Lecture On:Significance of the institution of Wasiyyat & its blessings(In the light of the faith-inspiring incidents described by Hazarat Amirul Momineen Khalifatul Masig V(atba)) By:Maulana Zainuddin Sahib Hamid(Secretary Majlis Karpardaz,Qadian)",
    "start_time": "2016-12-26:3:30:00",
    "end_time": "2016-12-26:4:00:00"
  },
  {
    "event_title": "Introductory Speeches and Announcements",
    "event_desc": "Introductory Speeches and Announcements",
    "start_time": "2016-12-26:4:00:00",
    "end_time": "2016-12-26:4:30:00"
  }
]